[gd_scene load_steps=2 format=3 uid="uid://b2i0e2x7xvpda"]

[ext_resource type="Script" path="res://example/control_row.gd" id="1_grved"]

[node name="ControlsRow" type="HBoxContainer"]
offset_right = 1024.0
offset_bottom = 31.0
script = ExtResource("1_grved")

[node name="ActionName" type="Label" parent="."]
clip_contents = true
custom_minimum_size = Vector2(300, 0)
offset_top = 2.0
offset_right = 1024.0
offset_bottom = 28.0
size_flags_horizontal = 3
text = "Action name"
horizontal_alignment = 1
